…
dplyr::band_instruments 

You should have obtained this:

# A tibble: 3 x 2
  name  plays 
  <chr> <chr> 
1 John  guitar
2 Paul  bass  
3 Keith guitar

A tibble is a special type of data frame that is used by dplyr and associated packages.We are done looking at this table, as it is too small to be of interest. Let’s look at another package. Scroll down the list of dplyr commands until you reach the starwars data set and open that in the usual way. You should obtain the following data set.

# A tibble: 87 x 14
   name    height  mass hair_color  skin_color eye_color birth_year sex   gender
   <chr>    <int> <dbl> <chr>       <chr>      <chr>          <dbl> <chr> <chr> 
 1 Luke S~    172    77 blond       fair       blue            19   male  mascu~
 2 C-3PO      167    75 <NA>        gold       yellow         112   none  mascu~
 3 R2-D2       96    32 <NA>        white, bl~ red             33   none  mascu~
 4 Darth ~    202   136 none        white      yellow          41.9 male  mascu~
 5 Leia O~    150    49 brown       light      brown           19   fema~ femin~
 6 Owen L~    178   120 brown, grey light      blue            52   male  mascu~
 7 Beru W~    165    75 brown       light      blue            47   fema~ femin~
 8 R5-D4       97    32 <NA>        white, red red             NA   none  mascu~
 9 Biggs ~    183    84 black       light      brown           24   male  mascu~
10 Obi-Wa~    182    77 auburn, wh~ fair       blue-gray       57   male  mascu~
# ... with 77 more rows, and 5 more variables: homeworld <chr>, species <chr>,
#   films <list>, vehicles <list>, starships <list>
…
